<?xml version="1.0" encoding="UTF-8" standalone="no"?>
<!-- Created with Inkscape (http://www.inkscape.org/) -->

<svg
   xmlns:osb="http://www.openswatchbook.org/uri/2009/osb"
   xmlns:dc="http://purl.org/dc/elements/1.1/"
   xmlns:cc="http://creativecommons.org/ns#"
   xmlns:rdf="http://www.w3.org/1999/02/22-rdf-syntax-ns#"
   xmlns:svg="http://www.w3.org/2000/svg"
   xmlns="http://www.w3.org/2000/svg"
   xmlns:xlink="http://www.w3.org/1999/xlink"
   xmlns:sodipodi="http://sodipodi.sourceforge.net/DTD/sodipodi-0.dtd"
   xmlns:inkscape="http://www.inkscape.org/namespaces/inkscape"
   width="600"
   height="600"
   viewBox="0 0 600 600"
   id="svg2"
   version="1.1"
   inkscape:version="0.91 r13725"
   sodipodi:docname="AciSoft.svg"
   inkscape:export-filename="E:\Users\Robin\Documenten\Code\Java\AciSoft_Core\assets\img\logo\AciSoft.png"
   inkscape:export-xdpi="90"
   inkscape:export-ydpi="90">
  <defs
     id="defs4">
    <linearGradient
       inkscape:collect="always"
       id="linearGradient5685">
      <stop
         id="stop5689"
         offset="0"
         style="stop-color:#8c8c8c;stop-opacity:1" />
      <stop
         id="stop5687"
         offset="1"
         style="stop-color:#000000;stop-opacity:1;" />
    </linearGradient>
    <linearGradient
       id="linearGradient5675"
       osb:paint="solid">
      <stop
         style="stop-color:#ffffff;stop-opacity:1;"
         offset="0"
         id="stop5677" />
    </linearGradient>
    <radialGradient
       inkscape:collect="always"
       xlink:href="#linearGradient5685"
       id="radialGradient5697"
       cx="300"
       cy="752.36224"
       fx="300"
       fy="752.36224"
       r="300"
       gradientTransform="matrix(1.8333333,-5.691874e-8,3.6221013e-8,1.1666668,-250.00004,-125.39384)"
       gradientUnits="userSpaceOnUse"
       spreadMethod="pad" />
  </defs>
  <sodipodi:namedview
     id="base"
     pagecolor="#ffffff"
     bordercolor="#666666"
     borderopacity="1.0"
     inkscape:pageopacity="0.0"
     inkscape:pageshadow="2"
     inkscape:zoom="1.2521683"
     inkscape:cx="256.1214"
     inkscape:cy="274.32813"
     inkscape:document-units="px"
     inkscape:current-layer="layer2"
     showgrid="true"
     units="px"
     inkscape:snap-bbox="true"
     inkscape:snap-grids="true"
     inkscape:snap-to-guides="true"
     inkscape:window-width="1920"
     inkscape:window-height="1017"
     inkscape:window-x="-8"
     inkscape:window-y="-8"
     inkscape:window-maximized="1">
    <inkscape:grid
       type="xygrid"
       id="grid3336"
       enabled="true"
       visible="true"
       snapvisiblegridlinesonly="true"
       dotted="false"
       spacingx="10"
       spacingy="10" />
  </sodipodi:namedview>
  <metadata
     id="metadata7">
    <rdf:RDF>
      <cc:Work
         rdf:about="">
        <dc:format>image/svg+xml</dc:format>
        <dc:type
           rdf:resource="http://purl.org/dc/dcmitype/StillImage" />
        <dc:title></dc:title>
      </cc:Work>
    </rdf:RDF>
  </metadata>
  <g
     inkscape:label="Film"
     inkscape:groupmode="layer"
     id="layer1"
     transform="translate(0,-452.36216)">
    <rect
       style="fill:url(#radialGradient5697);fill-rule:evenodd;stroke:#000000;stroke-width:0;stroke-linecap:butt;stroke-linejoin:miter;stroke-opacity:1;stroke-miterlimit:4;stroke-dasharray:none;opacity:1;fill-opacity:1"
       id="rect3338"
       width="600"
       height="500.00003"
       x="0"
       y="502.36215"
       ry="0" />
    <rect
       style="opacity:1;fill:#ffffff;fill-opacity:1"
       id="rect4143"
       width="40.000008"
       height="50.000023"
       x="0"
       y="522.36218" />
    <rect
       style="fill:#ffffff"
       id="rect4143-3"
       width="80"
       height="49.999977"
       x="60"
       y="522.36218" />
    <rect
       style="fill:#ffffff"
       id="rect4143-1"
       width="80"
       height="49.999977"
       x="160"
       y="522.36218" />
    <rect
       style="fill:#ffffff"
       id="rect4169"
       width="80"
       height="50"
       x="260"
       y="522.36218" />
    <rect
       style="fill:#ffffff"
       id="rect4171"
       width="80"
       height="50"
       x="360"
       y="522.36218" />
    <rect
       style="fill:#ffffff"
       id="rect4173"
       width="80"
       height="50"
       x="460"
       y="522.36218" />
    <rect
       style="fill:#ffffff"
       id="rect4143-16"
       width="40.000008"
       height="50.000023"
       x="0"
       y="932.36218" />
    <rect
       style="fill:#ffffff"
       id="rect4143-3-2"
       width="80"
       height="49.999977"
       x="60"
       y="932.36218" />
    <rect
       style="fill:#ffffff"
       id="rect4143-1-5"
       width="80"
       height="49.999977"
       x="159.99998"
       y="932.36218" />
    <rect
       style="fill:#ffffff"
       id="rect4169-4"
       width="80"
       height="50"
       x="260.00006"
       y="932.36218" />
    <rect
       style="fill:#ffffff"
       id="rect4171-4"
       width="80"
       height="50"
       x="360.00006"
       y="932.36218" />
    <rect
       style="fill:#ffffff"
       id="rect4173-7"
       width="80"
       height="50"
       x="460"
       y="932.36218" />
    <rect
       style="fill:#ffffff"
       id="rect4173-5"
       width="40"
       height="49.999977"
       x="560"
       y="522.36218" />
    <rect
       style="fill:#ffffff"
       id="rect4173-7-5"
       width="40"
       height="49.999977"
       x="560"
       y="932.36218"
       inkscape:export-xdpi="90"
       inkscape:export-ydpi="90" />
    <rect
       style="opacity:1;fill:#c8c8c8;fill-opacity:0.07843138;stroke-width:0;stroke-miterlimit:4;stroke-dasharray:none"
       id="rect5716"
       width="600"
       height="319.99997"
       x="0"
       y="592.36218" />
  </g>
  <g
     inkscape:groupmode="layer"
     id="layer2"
     inkscape:label="Text">
    <flowRoot
       xml:space="preserve"
       id="flowRoot5729"
       style="fill:black;stroke:none;stroke-opacity:1;stroke-width:1px;stroke-linejoin:miter;stroke-linecap:butt;fill-opacity:1;font-family:sans-serif;font-style:normal;font-weight:normal;font-size:40px;line-height:125%;letter-spacing:0px;word-spacing:0px"><flowRegion
         id="flowRegion5731"><rect
           id="rect5733"
           width="10"
           height="50"
           x="50"
           y="150" /></flowRegion><flowPara
         id="flowPara5735"></flowPara></flowRoot>    <flowRoot
       xml:space="preserve"
       id="flowRoot5719"
       style="font-style:normal;font-variant:normal;font-weight:normal;font-stretch:normal;font-size:250px;line-height:100%;font-family:'Alien Encounters';-inkscape-font-specification:'Alien Encounters, Normal';text-align:center;letter-spacing:0px;word-spacing:0px;writing-mode:lr-tb;text-anchor:middle;fill:#000000;fill-opacity:1;stroke:none;stroke-width:1px;stroke-linecap:butt;stroke-linejoin:miter;stroke-opacity:1"
       transform="translate(3.8671875,5.6818255)"><flowRegion
         id="flowRegion5721"><rect
           id="rect5723"
           width="500"
           height="260"
           x="50"
           y="200"
           style="font-style:normal;font-variant:normal;font-weight:normal;font-stretch:normal;font-size:250px;line-height:100%;font-family:'Alien Encounters';-inkscape-font-specification:'Alien Encounters, Normal';text-align:center;writing-mode:lr-tb;text-anchor:middle" /></flowRegion><flowPara
         id="flowPara5725"
         style="font-style:normal;font-variant:normal;font-weight:normal;font-stretch:normal;font-size:250px;line-height:100%;font-family:'Alien Encounters';-inkscape-font-specification:'Alien Encounters, Normal';text-align:center;writing-mode:lr-tb;text-anchor:middle">ACI</flowPara></flowRoot>  </g>
</svg>
